-------------------------------------------------------------------------------
Test set: com.hannahs.decision.moviepicker.MoviePickerApplicationTests
-------------------------------------------------------------------------------
Tests run: 1, Failures: 0, Errors: 0, Skipped: 0, Time elapsed: 2.163 s - in com.hannahs.decision.moviepicker.MoviePickerApplicationTests
